<?xml version="1.0" encoding="utf-8"?>
<!-- Generator: Adobe Illustrator 18.1.1, SVG Export Plug-In . SVG Version: 6.00 Build 0)  -->
<!DOCTYPE svg PUBLIC "-//W3C//DTD SVG 1.1//EN" "http://www.w3.org/Graphics/SVG/1.1/DTD/svg11.dtd">
<svg version="1.1" id="Layer_1" xmlns="http://www.w3.org/2000/svg" xmlns:xlink="http://www.w3.org/1999/xlink" x="0px" y="0px"
	 viewBox="0 0 95 53.3" enable-background="new 0 0 95 53.3" xml:space="preserve">
<g>
	<path d="M79,0H16v45.2h63V0z M73.3,39.4H21.7V5.7h51.5V39.4z"/>
	<polygon points="53.1,47.6 53.1,49.5 41.9,49.5 41.9,47.6 0,47.6 0,53.3 95,53.3 95,47.6 	"/>
</g>
</svg>
