<svg xmlns="http://www.w3.org/2000/svg" xmlns:xlink="http://www.w3.org/1999/xlink" preserveAspectRatio="xMidYMid" width="13" height="8" viewBox="0 0 13 8">
  <defs>
    <style>

      
    </style>
  </defs>
  <path d="M0.113,2.568 C0.113,2.568 5.534,7.989 5.534,7.989 C5.705,8.160 5.978,8.160 6.149,7.989 C6.149,7.989 11.570,2.568 11.570,2.568 C11.741,2.397 11.741,2.124 11.570,1.953 C11.570,1.953 9.738,0.121 9.738,0.121 C9.567,-0.050 9.287,-0.050 9.116,0.121 C9.116,0.121 5.842,3.395 5.842,3.395 C5.842,3.395 2.567,0.121 2.567,0.121 C2.396,-0.050 2.116,-0.050 1.945,0.121 C1.945,0.121 0.113,1.953 0.113,1.953 C-0.058,2.124 -0.058,2.397 0.113,2.568 Z" id="path-1" fill-rule="evenodd"/>
</svg>
