<svg xmlns="http://www.w3.org/2000/svg" xmlns:xlink="http://www.w3.org/1999/xlink" preserveAspectRatio="xMidYMid" width="11" height="11" viewBox="0 0 11 11">
  <defs>
    <style>
    </style>
  </defs>
  <path d="M10.963,5.576 C10.988,5.487 10.976,5.398 10.912,5.321 C10.912,5.321 5.644,0.053 5.644,0.053 C5.554,-0.036 5.402,-0.036 5.313,0.053 C5.313,0.053 0.044,5.321 0.044,5.321 C-0.019,5.398 -0.032,5.487 -0.007,5.576 C0.031,5.665 0.120,5.716 0.210,5.716 C0.210,5.716 1.355,5.716 1.355,5.716 C1.355,5.716 1.355,10.755 1.355,10.755 C1.355,10.883 1.457,10.984 1.584,10.984 C1.584,10.984 3.875,10.984 3.875,10.984 C4.002,10.984 4.104,10.883 4.104,10.755 C4.104,10.755 4.104,6.861 4.104,6.861 C4.104,6.861 6.852,6.861 6.852,6.861 C6.852,6.861 6.852,10.755 6.852,10.755 C6.852,10.883 6.954,10.984 7.082,10.984 C7.082,10.984 9.372,10.984 9.372,10.984 C9.499,10.984 9.601,10.883 9.601,10.755 C9.601,10.755 9.601,5.716 9.601,5.716 C9.601,5.716 10.747,5.716 10.747,5.716 C10.836,5.716 10.925,5.665 10.963,5.576 Z" id="path-1"/>
</svg>
