<?xml version="1.0" encoding="utf-8"?>
<!-- Generator: Adobe Illustrator 18.1.1, SVG Export Plug-In . SVG Version: 6.00 Build 0)  -->
<!DOCTYPE svg PUBLIC "-//W3C//DTD SVG 1.1//EN" "http://www.w3.org/Graphics/SVG/1.1/DTD/svg11.dtd">
<svg version="1.1" id="Layer_1" xmlns="http://www.w3.org/2000/svg" xmlns:xlink="http://www.w3.org/1999/xlink" x="0px" y="0px"
	 viewBox="0 0 16 10.9" enable-background="new 0 0 16 10.9" xml:space="preserve">
<g>
	<rect y="1" fill="#EAEAEA" width="16" height="1"/>
	<rect fill="#FA1F20" width="16" height="1"/>
	<rect y="3" fill="#EAEAEA" width="16" height="1"/>
	<rect y="2" fill="#FA1F20" width="16" height="1"/>
	<rect y="4.9" fill="#EAEAEA" width="16" height="1"/>
	<rect y="4" fill="#FA1F20" width="16" height="1"/>
	<rect y="6.9" fill="#EAEAEA" width="16" height="1"/>
	<rect y="5.9" fill="#FA1F20" width="16" height="1"/>
	<rect fill="#3D79F8" width="9" height="6.9"/>
	<rect y="7.9" fill="#FA1F20" width="16" height="1"/>
	<rect y="8.9" fill="#EAEAEA" width="16" height="1"/>
	<rect y="9.9" fill="#FA1F20" width="16" height="1"/>
	<g>
		<rect x="1" y="5" fill="#FFFFFF" width="1" height="1"/>
		<rect x="3" y="5" fill="#FFFFFF" width="1" height="1"/>
		<rect x="5" y="5" fill="#FFFFFF" width="1" height="1"/>
		<rect x="7" y="5" fill="#FFFFFF" width="1" height="1"/>
		<rect x="1" y="1" fill="#FFFFFF" width="1" height="1"/>
		<rect x="3" y="1" fill="#FFFFFF" width="1" height="1"/>
		<rect x="2" y="3" fill="#FFFFFF" width="1" height="1"/>
		<rect x="4" y="3" fill="#FFFFFF" width="1" height="1"/>
		<rect x="6" y="3" fill="#FFFFFF" width="1" height="1"/>
		<rect x="5" y="1" fill="#FFFFFF" width="1" height="1"/>
		<rect x="7" y="1" fill="#FFFFFF" width="1" height="1"/>
	</g>
</g>
</svg>
