<?xml version="1.0" encoding="utf-8"?>
<!-- Generator: Adobe Illustrator 18.1.1, SVG Export Plug-In . SVG Version: 6.00 Build 0)  -->
<!DOCTYPE svg PUBLIC "-//W3C//DTD SVG 1.1//EN" "http://www.w3.org/Graphics/SVG/1.1/DTD/svg11.dtd">
<svg version="1.1" id="Layer_1" xmlns="http://www.w3.org/2000/svg" xmlns:xlink="http://www.w3.org/1999/xlink" x="0px" y="0px"
	 viewBox="0 0 100 100" enable-background="new 0 0 100 100" xml:space="preserve">
<path  d="M92.7,12.9c-0.6,0-1.2,0-1.9,0c-0.8,0-1.7,0-2.6,0H11.8c-1,0-1.8,0-2.6,0c-0.7,0-1.4,0-1.9,0
	c-5.5,0-7.3,2-7.3,8v59c0,6.1,1.8,8,7.3,8c0.6,0,1.2,0,1.9,0c0.8,0,1.7,0,2.6,0h76.3c1,0,1.8,0,2.6,0c0.7,0,1.3,0,1.9,0
	c2,0,4.1-0.1,5.6-1.6s1.7-4,1.7-6.4v-59C100,14.9,98.2,12.9,92.7,12.9z M96,80c0,2.7-0.4,3.4-0.6,3.6C95,84,93.3,84,92.7,84
	c-0.5,0-1.1,0-1.8,0c-0.8,0-1.7,0-2.7,0h-38H11.8c-1,0-1.9,0-2.7,0c-0.7,0-1.3,0-1.8,0C4.2,84,4,84,4,80V33l46.1,30.2l45.7-29.9V80
	H96z M96,28.5L50.2,58.4L4,28.3V21c0-4,0.2-4,3.3-4c0.5,0,1.1,0,1.8,0c0.8,0,1.7,0,2.7,0h76.3c1,0,1.9,0,2.7,0c0.7,0,1.3,0,1.8,0
	c3.1,0,3.3,0,3.3,4C96,21,96,28.5,96,28.5z"/>
</svg>
