<?xml version="1.0" encoding="utf-8"?>
<!-- Generator: Adobe Illustrator 18.1.1, SVG Export Plug-In . SVG Version: 6.00 Build 0)  -->
<!DOCTYPE svg PUBLIC "-//W3C//DTD SVG 1.1//EN" "http://www.w3.org/Graphics/SVG/1.1/DTD/svg11.dtd">
<svg version="1.1" id="Layer_1" xmlns="http://www.w3.org/2000/svg" xmlns:xlink="http://www.w3.org/1999/xlink" x="0px" y="0px"
	 viewBox="0 0 100 100" enable-background="new 0 0 100 100" xml:space="preserve">
<g>
	<path  d="M32.5,39.7h29.1c1.8,0,3.2-1.4,2.9-2.9V21.8c0-1.4-1.1-2.9-2.9-2.9H32.5c-1.4,0-2.9,1.4-2.9,2.9v15.1
		C29.6,38.3,30.7,39.7,32.5,39.7z M37.5,20h24c1.1,0,1.8,0.7,1.8,1.8v11.1l-26.2-0.3L37.5,20z M63.3,33.6v3.2c0,1.1-0.7,1.8-1.8,1.8
		H32.5c0,0-0.1,0-0.1,0l4.5-5H63.3z M30.7,21.8c0-1.1,1.1-1.8,1.8-1.8h3.9v13.2l-0.3,0.3l-3.9,4.3l-0.6,0.7
		c-0.5-0.3-0.9-0.8-0.9-1.6V21.8z"/>
	<path  d="M63.7,50.5H31c-1.4,0-2.9,1.4-3.2,2.9l-2.9,15.8c-0.4,0.7,0,1.4,0.4,2.2c0.7,0.4,1.4,0.7,2.2,0.7H68
		c1.1,0,1.8-0.4,2.2-0.7c0.4-0.7,0.4-1.4,0.4-2.2l-3.6-15.8C66.9,51.6,65.1,50.5,63.7,50.5z M26,69.5l2.9-15.8
		c0-1.1,1.1-1.8,2.2-1.8h2.2v10.4l-6.9,8.1C26,70.1,26,69.8,26,69.5z M69.4,69.5c0,0.4,0,0.7-0.4,1.1c-0.4,0.4-0.7,0.4-1.1,0.4H27.4
		c-0.1,0-0.2,0-0.2,0L34,63h33.9L69.4,69.5z M34.2,62v-10h29.1c1.1,0,2.2,0.7,2.5,1.8l1.9,8.3H34.2z"/>
	<path  d="M89.9,77.4c-7.2-7.5-11.1-15.1-12.6-23c-3.9-22.6,0.9-37.1,0.9-37.1l0.3-1C80.8,9.4,83,4.4,83,4.2
		C82.3,2.4,61.9,0.6,49,0.3c-1.8,0-3.2,0-4.7,0c-10.8,0-30.9,1.1-31.6,2.9c-0.4,0.7,0,1.4,1.4,5c2.5,7.2,8.3,22.2,7.5,37
		c-0.4,15.8-7.9,35.5-10.8,42.7c-0.4,0.7-0.7,1.4-0.7,1.8c-0.4,1.4-0.4,2.9,0,3.9c0.7,1.4,2.9,2.2,4.7,2.5c0.5,0.2,0.7,0.4,1.1,0.4
		c2.2,0.7,15.4,3.1,31.5,3.5c2.2,0,3.9,0,6.1,0c12.6,0,20.9-0.9,29-3c3.4-0.9,4.8-1.6,5.1-2.7c0.1-0.2,0.2-0.5,0.2-0.7
		C89,89.4,90.9,79.1,89.9,77.4z M87,94c0,0.1,0,0.2-0.1,0.2c-0.4,0.7-1.8,1.4-4.3,2.2c-7.2,1.8-16.5,2.5-29.1,2.5
		c-2.2,0-3.9,0-6.1,0c-16.1-0.4-29.4-2.5-31.6-3.2c-0.4-0.2-0.4-0.2-0.7-0.4c-1.4-0.4-3.2-1.1-3.9-2.2c-0.4-0.7-0.4-1.4,0-2.9
		c0.4-0.7,0.4-1.1,0.7-1.8c3.2-8.3,10.4-27.3,11.1-43.4c0.4-14.7-5.4-30.1-7.9-37.3c-0.7-1.8-1.4-3.9-1.4-4.3
		c1.4-0.7,15.4-2.2,30.9-2.2c1.8,0,3.2,0,4.7,0c15.8,0.4,30.9,2.2,33,3.2c-0.6,1.3-2.5,5.8-4.5,11.5l-0.2,0.5c-0.1,0-1,1.7-1.8,5.9
		c-2.1,7.2-3.9,15.3-3.5,21.8c0.4,13.6,3.9,28,10,40.9c0.7,2.2,1.8,3.6,2.9,5c0.6,1.1,1.3,2,1.6,2.7c0.1,0.3,0.3,0.5,0.3,0.8L87,94z
		 M87.2,91.2c-0.3-0.6-0.8-1.2-1.3-2c-1.1-1.1-2.2-2.9-2.9-4.7C76.9,71.7,73.7,57.7,73,44c-0.2-4.6,0.6-10.1,1.9-15.5
		c-0.7,6.6-0.8,15.4,0.9,25.9c1.4,8.3,5.7,16.1,12.9,23.7C89.4,79.1,88.4,85.1,87.2,91.2z"/>
</g>
</svg>
