<?xml version="1.0" encoding="utf-8"?>
<!-- Generator: Adobe Illustrator 18.1.1, SVG Export Plug-In . SVG Version: 6.00 Build 0)  -->
<!DOCTYPE svg PUBLIC "-//W3C//DTD SVG 1.1//EN" "http://www.w3.org/Graphics/SVG/1.1/DTD/svg11.dtd">
<svg version="1.1" id="Layer_1" xmlns="http://www.w3.org/2000/svg" xmlns:xlink="http://www.w3.org/1999/xlink" x="0px" y="0px"
	 viewBox="0 0 100 100" enable-background="new 0 0 100 100" xml:space="preserve">
<path  d="M21.7,53.3h25V100H0V46.7C0,16.7,14.4,0,39.4,0v23.3c-10.6,0-17.8,9.4-17.8,22.2V53.3z M75,53.3v-7.8
	c0-12.8,7.2-22.2,17.8-22.2V0c-25,0-39.4,16.7-39.4,46.7V100H100V53.3H75z"/>
</svg>
