<svg xmlns="http://www.w3.org/2000/svg" xmlns:xlink="http://www.w3.org/1999/xlink" preserveAspectRatio="xMidYMid" width="17" height="16" viewBox="0 0 17 16">
  <defs>
    <style>

      .cls-2 {
        fill: #282626;
      }
    </style>
  </defs>
  <path d="M7.990,-0.012 C3.563,-0.012 -0.008,3.577 -0.008,7.986 C-0.008,12.396 3.563,15.984 7.990,15.984 C12.400,15.984 15.988,12.396 15.988,7.986 C15.988,3.577 12.400,-0.012 7.990,-0.012 ZM11.543,10.004 C11.543,10.004 9.990,11.539 9.990,11.539 C9.990,11.539 7.990,9.540 7.990,9.540 C7.990,9.540 5.973,11.539 5.973,11.539 C5.973,11.539 4.438,10.004 4.438,10.004 C4.438,10.004 6.437,7.986 6.437,7.986 C6.437,7.986 4.438,5.987 4.438,5.987 C4.438,5.987 5.973,4.434 5.973,4.434 C5.973,4.434 7.990,6.451 7.990,6.451 C7.990,6.451 9.990,4.434 9.990,4.434 C9.990,4.434 11.543,5.987 11.543,5.987 C11.543,5.987 9.526,7.986 9.526,7.986 C9.526,7.986 11.543,10.004 11.543,10.004 Z" id="path-1" class="cls-2" fill-rule="evenodd"/>
</svg>
