<?xml version="1.0" encoding="utf-8"?>
<!-- Generator: Adobe Illustrator 18.1.1, SVG Export Plug-In . SVG Version: 6.00 Build 0)  -->
<!DOCTYPE svg PUBLIC "-//W3C//DTD SVG 1.1//EN" "http://www.w3.org/Graphics/SVG/1.1/DTD/svg11.dtd">
<svg version="1.1" id="Layer_1" xmlns="http://www.w3.org/2000/svg" xmlns:xlink="http://www.w3.org/1999/xlink" x="0px" y="0px"
	 viewBox="0 0 27.9 29.4" enable-background="new 0 0 27.9 29.4" xml:space="preserve">
<path fill="#ED1C24" d="M27.9,13.4h-3.5c-0.6-4.7-4.4-8.4-9.1-9V1.3V0h-2.6v1.3v3.1c-4.7,0.6-8.5,4.3-9.1,9H0V16h3.6
	c0.6,4.7,4.4,8.4,9.1,9v3.1v1.3h2.6v-1.3V25c4.7-0.6,8.5-4.3,9.1-9h3.5V13.4z M21.7,13.4h-6.4V7C18.6,7.6,21.2,10.1,21.7,13.4z
	 M12.7,7v6.4H6.2C6.8,10.1,9.4,7.6,12.7,7z M6.2,16h6.4v6.4C9.4,21.8,6.8,19.2,6.2,16z M15.3,22.4V16h6.4
	C21.2,19.2,18.6,21.8,15.3,22.4z"/>
</svg>
